939722 677429 525
792211 904132 525
310586 770832 509
20596 606787 470
704616 795662 504
219421 557118 470
817207 246353 509
671792 675767 367
200379 305570 443
953891 372707 525
35790 464650 449
350399 151912 443
305995 22587 443
974388 449282 525
178188 410807 449
908887 272664 525
468092 97925 449
845486 903752 445
179995 926690 525
909316 946093 507
130299 556900 470
49667 239844 443
760819 755215 380
137762 777658 509
169767 181 383
801311 121437 509
240454 173821 443
164903 990387 525
996950 359874 525
373175 422738 449
699787 286045 509
99537 469090 449
288527 636254 509
891405 292012 525
119976 227391 386
944392 281266 525
270555 421884 449
27786 955542 525
79207 253968 443
163009 672021 509
710081 724391 411
168976 205854 365
597395 172687 470
894206 464201 525
548179 753880 509
560482 120307 470
236553 234164 381
275030 252710 407
689142 132013 509
293648 992413 525
436799 595786 470
880831 925569 476
959390 950639 414
586083 671995 509
578494 826320 509
832516 985158 525
733280 102832 509
227344 182398 386
151671 411810 449
200270 97123 383
179866 359561 443
323647 800277 509
921622 230908 525
675398 249776 509
460660 245435 449
910205 516371 525
123403 264155 443
61692 371211 443
624516 16885 470
460476 556815 470
678999 273060 509
520918 891806 525
696517 402993 509
619095 272433 470
120820 849932 525
603958 425200 470
60067 489142 449
972746 439594 525
571145 350027 470
782803 247411 509
579800 240095 470
640845 627129 416
563157 515421 452
230834 719494 509
47480 664060 509
91470 12954 351
506550 905476 525
835483 336692 509
323013 36075 443
601255 311978 470
261782 608295 470
674912 19528 509
99003 330106 443
109661 478958 449
298107 324992 384
165138 242020 443
715454 287321 509
869693 452865 525
72856 160024 383
822371 729181 468
931025 444974 525
172646 907515 525
8165 843939 525
169551 576030 470
35906 914417 525
813672 35164 509
224408 22762 386
325578 867256 525
956055 859945 507
414522 248305 449
412870 611267 470
67623 723590 509
159617 291317 443
64887 677843 509
339012 91407 443
513815 169029 470
568106 360210 470
126681 948129 525
9489 145692 375
487985 10528 449
841315 302469 525
428345 435146 387
358945 541886 470
196181 374649 443
126893 913877 525
328307 891943 525
703400 444394 509
855287 758860 525
821439 543271 509
530199 732933 509
884479 243705 525
573398 604967 434
923191 412463 525
836968 407003 509
690563 565014 509
244541 103519 443
937887 187137 525
620673 33199 470
574056 222582 470
803665 910989 525
65732 652827 509
280083 39379 443
935208 60860 525
533848 661026 509
950227 141551 525
465198 169473 449
169883 926622 525
548026 223102 470
937098 629819 525
539099 768366 509
244651 751441 509
385251 426003 449
620917 403544 470
329362 863963 525
848129 826117 525
90592 158863 383
838729 471921 525
145515 469803 449
647667 656617 385
392331 340305 441
871200 262603 525
601381 231684 470
561066 60790 470
453234 161971 449
369263 396992 436
574843 470969 470
857634 732161 525
32683 984219 525
201907 62195 383
251118 846151 525
244206 423067 449
106545 753328 509
871095 963375 507
118529 82818 354
981302 830522 525
262736 234613 368
477143 233179 449
493368 952207 525
299837 465057 449
301779 127552 443
221238 262655 443
421922 76257 449
781525 625555 509
18627 143890 375
267590 713998 509
702301 126637 509
75283 954063 525
763638 631995 504
321643 501558 449
965295 343029 525
249848 615268 470
433064 515086 470
209518 12764 383
533941 683019 509
411062 933000 525
125209 810393 509
886695 218729 525
67464 700671 509
68260 747643 509
930703 866229 476
143857 530858 470
926495 259485 525
743342 555193 509
371296 856387 525
410513 976850 525
671565 944970 525
45902 414042 449
727059 825765 468
780146 857941 525
645805 6723 509
183578 587895 470
325496 606619 470
779005 29384 509
385313 668210 509
934186 259281 525
440725 962842 525
575085 979508 525
356687 735697 509
777574 733750 468
333209 769216 509
534938 953976 525
854422 728427 525
66174 427561 449
347998 600735 470
870746 900842 445
932748 224526 525
150137 686626 509
113433 789312 509
471549 962031 525
138670 195697 383
109518 380474 443
300843 178527 443
939987 493574 525
99148 416444 449
406504 423308 449
16367 628396 509
187349 187770 316
854609 513127 525
903097 875120 445
511601 334687 449
723788 838417 525
398959 684891 509
478394 20324 449
52086 841611 525
971757 432529 525
989280 286748 525
754113 684636 504
213602 414035 449
834519 377159 509
836610 533640 509
