56477 851597 525
260416 205717 443
794477 221275 509
768082 697008 504
543904 911646 525
752722 939475 525
460345 92576 449
664632 677147 442
350979 74512 443
438764 307006 449
571975 456964 470
487751 478217 413
324459 140547 443
607246 931175 525
609038 72234 470
809697 134549 509
395709 887864 525
319283 498976 449
695619 342273 509
803784 617263 509
394145 175886 443
732787 454562 509
807473 24157 509
32235 177902 383
892634 739771 525
276074 699210 509
985202 82286 525
505747 171337 449
169128 167816 334
710510 508432 509
590400 953011 525
532204 540290 377
721804 395056 509
854458 50124 525
770265 66837 509
772555 19929 509
285499 845074 525
144744 208972 383
191629 228599 386
190029 172488 365
174859 508127 449
694493 346253 509
980046 679396 525
331053 4273 443
937954 642912 525
774771 732922 468
347678 533727 470
355696 884945 525
483826 489539 382
789367 578498 509
833692 440044 509
995498 371356 525
821850 156426 509
99091 857313 525
79995 829002 509
937756 729113 525
479553 494125 426
453691 290216 449
729961 696767 504
604744 94016 470
88546 571822 470
270239 192416 443
89837 180969 383
783401 280021 509
184700 847474 525
546871 183829 470
543591 60337 470
383209 892903 525
204448 99633 383
655486 173362 509
150143 699540 509
262399 192240 443
215186 926231 525
254845 536717 470
550075 526466 452
55290 886006 525
929497 272757 525
553230 503232 470
566201 92315 470
853022 372970 525
320841 312242 384
868711 173215 525
662742 647067 429
454207 437243 400
965342 480477 525
181830 148970 383
948930 673966 525
508789 615044 470
955548 112848 525
869836 311443 525
163799 172123 352
305233 891679 525
508213 921889 525
70767 18723 340
287913 767583 509
875213 893073 445
506736 37744 449
571440 332912 470
865926 187246 525
700950 60167 509
243282 112016 443
396918 661636 509
634547 18643 509
587310 591038 359
873583 248368 525
712174 867403 525
370162 66362 443
492890 208593 449
989936 650877 525
467382 544298 470
755645 859013 525
883632 973560 507
255006 75021 443
355205 806102 509
665 963769 525
210277 505679 449
354823 966837 525
791466 267145 509
465925 351483 449
915502 702626 525
432043 112212 449
31350 772057 509
562228 711359 509
263635 562747 470
909179 84668 525
375131 295090 441
856503 944789 507
430806 993042 525
654002 338798 509
475054 693901 509
588000 483523 470
35911 276999 443
800626 869253 525
978632 869480 507
996014 725566 525
24411 751077 509
979603 642677 525
161601 441536 449
357628 922156 525
762710 425101 509
999408 759222 525
191594 126768 383
919173 835693 525
164726 291792 443
259782 216147 443
902866 481838 525
647333 895021 525
817455 418408 509
839538 856701 419
798792 816085 406
128410 452726 449
402964 636700 509
337447 24833 443
224066 260746 443
139783 545804 470
322439 192410 443
403769 172198 443
407994 7900 443
517393 306825 470
820706 845801 525
41509 839141 525
101837 624924 470
93109 253914 443
542715 350603 470
358741 811033 509
115395 58910 354
889856 269407 525
498875 76522 449
431918 590310 470
677471 329910 509
844794 487418 525
940483 277734 525
926430 759417 525
609627 800790 509
709332 697888 504
30096 141129 354
49394 915748 525
925642 31641 525
369982 908476 525
113638 857054 525
937983 945511 507
956981 254367 525
648241 977912 525
602182 811805 509
297452 745597 509
761385 578637 509
412379 329561 449
907402 340606 525
687354 30319 509
940055 149388 525
97006 964454 525
743307 256448 509
455890 243441 449
142684 358375 443
713369 296825 509
36065 212249 383
346601 224088 443
662826 197995 509
153440 867606 525
337821 504859 449
921985 255393 525
249717 317804 407
712022 877975 525
385166 219627 443
926324 343037 525
669795 743624 504
26911 746987 509
427573 745401 509
491133 98104 449
957543 967052 414
959264 293655 525
328106 641886 509
929408 605296 525
335247 407051 441
698683 501184 509
8543 895202 525
148798 204701 383
13324 983823 525
538583 355227 470
531745 677884 509
520382 344318 470
181560 653357 509
540147 473013 470
183574 309855 443
473687 281113 449
818190 643132 504
470176 350172 449
752955 103984 509
502409 473630 426
641595 421220 509
538321 593095 452
730888 79354 509
687094 561119 509
9531 851431 525
716470 192443 509
369527 452238 449
324552 448937 449
305507 392165 441
91849 40941 351
604320 108366 470
429455 524879 470
742693 529422 509
167682 170743 334
783322 543665 509
419772 94866 449
319672 876278 525
168340 634733 509
981195 206274 525
838416 268562 525
814133 829276 450
